Statistik_Code;Statistik_Label;Zeit_Code;Zeit_Label;Zeit;1_Merkmal_Code;1_Merkmal_Label;1_Auspraegung_Code;1_Auspraegung_Label;ETG004_____Arbeitnehmerentgelt_(Inlaender)__Mrd._EUR;SOZ002___-_Sozialbeitraege_der_Arbeitgeber__Mrd._EUR;VST006___=_Bruttoloehne_und_-gehaelter_(Inlaender)__Mrd._EUR;ABZ002___-_Abzuege_der_Arbeitnehmer__Mrd._EUR;VST013___=_Nettoloehne_u._-gehaelter_(Inlaender)__Mrd._EUR;LST005___+_Monetaere_Sozialleistungen__Mrd._EUR;ABG003___-_Abgaben_auf_soz._Leist.,_verbrauchsnahe_Steuern__Mrd._EUR;EKM003___=_Masseneinkommen_(private_Haushalte)__Mrd._EUR;VGR032___+_Betriebsuebersch./Selbstaend.-,Verm.eink._priv.HH__Mrd._EUR;TRF005___+_Weitere_empfangene_abzgl._geleistete_Transfers__Mrd._EUR;EKM006___=_Verfuegbares_Einkommen_der_privaten_Haushalte__Mrd._EUR;EKM012___nachrichtl.:_Verfuegb._Einkommen_(Verbrauchskzpt.)__Mrd._EUR;VGR091________________Zunahme_betriebl._Versorg.ansprueche__Mrd._EUR;VGR037________________Sparen_der_privaten_Haushalte__Mrd._EUR;VGR092________________Bezugsgroesse_fuer_die_Sparquote__Mrd._EUR;VGR093________________Sparquote_der_privaten_Haushalte__Prozent
81000;Volkswirtschaftliche Gesamtrechnungen des Bundes;JAHR;Jahr;2013;DINSG;Deutschland insgesamt;DG;Deutschland;1446,609;260,265;1186,344;386,991;799,353;490,620;106,741;1183,232;533,578;-79,847;1636,963;1986,668;53,884;157,063;1690,847;9,3
81000;Volkswirtschaftliche Gesamtrechnungen des Bundes;JAHR;Jahr;2014;DINSG;Deutschland insgesamt;DG;Deutschland;1503,949;269,779;1234,170;403,686;830,484;504,266;110,245;1224,505;532,353;-78,822;1678,036;2044,197;56,473;170,610;1734,509;9,8
81000;Volkswirtschaftliche Gesamtrechnungen des Bundes;JAHR;Jahr;2015;DINSG;Deutschland insgesamt;DG;Deutschland;1564,814;279,358;1285,456;422,165;863,291;524,336;113,877;1273,750;535,388;-84,605;1724,533;2107,956;57,806;179,370;1782,339;10,1
81000;Volkswirtschaftliche Gesamtrechnungen des Bundes;JAHR;Jahr;2016;DINSG;Deutschland insgesamt;DG;Deutschland;1625,050;287,662;1337,388;441,097;896,291;543,523;117,304;1322,510;551,532;-89,157;1784,885;2189,560;56,593;187,762;1841,478;10,2
81000;Volkswirtschaftliche Gesamtrechnungen des Bundes;JAHR;Jahr;2017;DINSG;Deutschland insgesamt;DG;Deutschland;1696,317;300,891;1395,426;462,897;932,529;564,949;123,197;1374,281;571,924;-101,747;1844,458;2263,468;60,783;202,776;1905,241;10,6
81000;Volkswirtschaftliche Gesamtrechnungen des Bundes;JAHR;Jahr;2018;DINSG;Deutschland insgesamt;DG;Deutschland;1774,011;311,332;1462,679;486,581;976,098;582,690;127,538;1431,250;588,116;-99,085;1920,281;2350,797;56,358;223,249;1976,639;11,3
81000;Volkswirtschaftliche Gesamtrechnungen des Bundes;JAHR;Jahr;2019;DINSG;Deutschland insgesamt;DG;Deutschland;1856,155;331,793;1524,362;502,382;1021,980;611,548;134,804;1498,724;563,085;-101,268;1960,541;2411,442;63,097;218,175;2023,638;10,8
81000;Volkswirtschaftliche Gesamtrechnungen des Bundes;JAHR;Jahr;2020;DINSG;Deutschland insgesamt;DG;Deutschland;1853,918;339,023;1514,895;494,903;1019,992;664,786;140,149;1544,629;538,398;-94,152;1988,875;2460,769;61,195;336,553;2050,070;16,4
81000;Volkswirtschaftliche Gesamtrechnungen des Bundes;JAHR;Jahr;2021;DINSG;Deutschland insgesamt;DG;Deutschland;1918,027;347,450;1570,577;507,957;1062,620;676,488;143,660;1595,448;547,050;-111,297;2031,201;2540,893;58,682;316,041;2089,883;15,1
81000;Volkswirtschaftliche Gesamtrechnungen des Bundes;JAHR;Jahr;2022;DINSG;Deutschland insgesamt;DG;Deutschland;2020,458;360,064;1660,394;541,734;1118,660;686,138;147,269;1657,529;621,886;-102,658;2176,757;2716,733;58,997;253,074;2235,754;11,3
